/home/patrik/workspace/VideoRetrieval7/src/main/java/de/uni_stuttgart/informatik/ipvs/schaefpk/VideoRetrieval/classes/SIFTMeanFeature.java
/home/patrik/workspace/VideoRetrieval7/src/main/java/de/uni_stuttgart/informatik/ipvs/schaefpk/VideoRetrieval/classes/BinaryColorLayoutFeature.java
/home/patrik/workspace/VideoRetrieval7/src/main/java/de/uni_stuttgart/informatik/ipvs/schaefpk/VideoRetrieval/classes/FixedLengthFeature.java
/home/patrik/workspace/VideoRetrieval7/src/main/java/de/uni_stuttgart/informatik/ipvs/schaefpk/VideoRetrieval/giraph/InsertPiece.java
/home/patrik/workspace/VideoRetrieval7/src/main/java/de/uni_stuttgart/informatik/ipvs/schaefpk/VideoRetrieval/classes/OpenCVUtils.java
/home/patrik/workspace/VideoRetrieval7/src/main/java/de/uni_stuttgart/informatik/ipvs/schaefpk/VideoRetrieval/test/BinaryWritableTest.java
/home/patrik/workspace/VideoRetrieval7/src/main/java/de/uni_stuttgart/informatik/ipvs/schaefpk/VideoRetrieval/giraph/InitPieceTopN.java
/home/patrik/workspace/VideoRetrieval7/src/main/java/de/uni_stuttgart/informatik/ipvs/schaefpk/VideoRetrieval/giraph/InsertBlockFactory.java
/home/patrik/workspace/VideoRetrieval7/src/main/java/de/uni_stuttgart/informatik/ipvs/schaefpk/VideoRetrieval/classes/BinaryFixedLengthFeature.java
/home/patrik/workspace/VideoRetrieval7/src/main/java/de/uni_stuttgart/informatik/ipvs/schaefpk/VideoRetrieval/feature_extraction/SIFTExtractionI2V.java
/home/patrik/workspace/VideoRetrieval7/src/main/java/de/uni_stuttgart/informatik/ipvs/schaefpk/VideoRetrieval/giraph/VertexValue.java
/home/patrik/workspace/VideoRetrieval7/src/main/java/de/uni_stuttgart/informatik/ipvs/schaefpk/VideoRetrieval/classes/SIFTFeatureList.java
/home/patrik/workspace/VideoRetrieval7/src/main/java/de/uni_stuttgart/informatik/ipvs/schaefpk/VideoRetrieval/classes/DoubleText.java
/home/patrik/workspace/VideoRetrieval7/src/main/java/de/uni_stuttgart/informatik/ipvs/schaefpk/VideoRetrieval/classes/FeatureList.java
/home/patrik/workspace/VideoRetrieval7/src/main/java/de/uni_stuttgart/informatik/ipvs/schaefpk/VideoRetrieval/classes/Feature.java
/home/patrik/workspace/VideoRetrieval7/src/main/java/de/uni_stuttgart/informatik/ipvs/schaefpk/VideoRetrieval/classes/QueryMessage.java
/home/patrik/workspace/VideoRetrieval7/src/main/java/de/uni_stuttgart/informatik/ipvs/schaefpk/VideoRetrieval/test/SIFTBenchmark.java
/home/patrik/workspace/VideoRetrieval7/src/main/java/de/uni_stuttgart/informatik/ipvs/schaefpk/VideoRetrieval/feature_extraction/SIFTExtractionI2VQuery.java
/home/patrik/workspace/VideoRetrieval7/src/main/java/de/uni_stuttgart/informatik/ipvs/schaefpk/VideoRetrieval/classes/SIFTDataObject.java
/home/patrik/workspace/VideoRetrieval7/src/main/java/de/uni_stuttgart/informatik/ipvs/schaefpk/VideoRetrieval/classes/DataObjectProvider.java
/home/patrik/workspace/VideoRetrieval7/src/main/java/de/uni_stuttgart/informatik/ipvs/schaefpk/VideoRetrieval/test/HadoopGraphTest.java
/home/patrik/workspace/VideoRetrieval7/src/main/java/de/uni_stuttgart/informatik/ipvs/schaefpk/VideoRetrieval/giraph/QueryBlockFactory.java
/home/patrik/workspace/VideoRetrieval7/src/main/java/de/uni_stuttgart/informatik/ipvs/schaefpk/VideoRetrieval/feature_extraction/DenseTrajectory.java
/home/patrik/workspace/VideoRetrieval7/src/main/java/de/uni_stuttgart/informatik/ipvs/schaefpk/VideoRetrieval/classes/BinaryDataObject.java
/home/patrik/workspace/VideoRetrieval7/src/main/java/de/uni_stuttgart/informatik/ipvs/schaefpk/VideoRetrieval/classes/DataObject.java
/home/patrik/workspace/VideoRetrieval7/src/main/java/de/uni_stuttgart/informatik/ipvs/schaefpk/VideoRetrieval/test/ASIFTReadAndMatchTest.java
/home/patrik/workspace/VideoRetrieval7/src/main/java/de/uni_stuttgart/informatik/ipvs/schaefpk/VideoRetrieval/feature_extraction/ASIFTExtractionHollywood.java
/home/patrik/workspace/VideoRetrieval7/src/main/java/de/uni_stuttgart/informatik/ipvs/schaefpk/VideoRetrieval/test/ASIFTExtractWriteTest.java
/home/patrik/workspace/VideoRetrieval7/src/main/java/de/uni_stuttgart/informatik/ipvs/schaefpk/VideoRetrieval/giraph/IterationPiece.java
/home/patrik/workspace/VideoRetrieval7/src/main/java/de/uni_stuttgart/informatik/ipvs/schaefpk/VideoRetrieval/giraph/BlockFactory.java
/home/patrik/workspace/VideoRetrieval7/src/main/java/de/uni_stuttgart/informatik/ipvs/schaefpk/VideoRetrieval/classes/BinaryScalableColorFeature.java
/home/patrik/workspace/VideoRetrieval7/src/main/java/de/uni_stuttgart/informatik/ipvs/schaefpk/VideoRetrieval/giraph/HelpAggregator.java
/home/patrik/workspace/VideoRetrieval7/src/main/java/de/uni_stuttgart/informatik/ipvs/schaefpk/VideoRetrieval/classes/HDFSProvider.java
/home/patrik/workspace/VideoRetrieval7/src/main/java/de/uni_stuttgart/informatik/ipvs/schaefpk/VideoRetrieval/giraph/MasterBlock.java
/home/patrik/workspace/VideoRetrieval7/src/main/java/de/uni_stuttgart/informatik/ipvs/schaefpk/VideoRetrieval/classes/SIFTListFeature.java
/home/patrik/workspace/VideoRetrieval7/src/main/java/de/uni_stuttgart/informatik/ipvs/schaefpk/VideoRetrieval/test/RelevanceTester.java
/home/patrik/workspace/VideoRetrieval7/src/main/java/de/uni_stuttgart/informatik/ipvs/schaefpk/VideoRetrieval/feature_extraction/VideoShotDetectorVisualisation.java
/home/patrik/workspace/VideoRetrieval7/src/main/java/de/uni_stuttgart/informatik/ipvs/schaefpk/VideoRetrieval/feature_extraction/MyOwnMBFMeanVarianceField.java
/home/patrik/workspace/VideoRetrieval7/src/main/java/de/uni_stuttgart/informatik/ipvs/schaefpk/VideoRetrieval/classes/BinaryPHOGFeature.java
/home/patrik/workspace/VideoRetrieval7/src/main/java/de/uni_stuttgart/informatik/ipvs/schaefpk/VideoRetrieval/classes/DoubleLong.java
/home/patrik/workspace/VideoRetrieval7/src/main/java/de/uni_stuttgart/informatik/ipvs/schaefpk/VideoRetrieval/feature_extraction/SIFTExtractionI2VOpenCV.java
/home/patrik/workspace/VideoRetrieval7/src/main/java/de/uni_stuttgart/informatik/ipvs/schaefpk/VideoRetrieval/feature_extraction/MyOwnCLMDetectedFace.java
/home/patrik/workspace/VideoRetrieval7/src/main/java/de/uni_stuttgart/informatik/ipvs/schaefpk/VideoRetrieval/classes/BinaryFeatureFactory.java
/home/patrik/workspace/VideoRetrieval7/src/main/java/de/uni_stuttgart/informatik/ipvs/schaefpk/VideoRetrieval/classes/BinaryFeatureList.java
/home/patrik/workspace/VideoRetrieval7/src/main/java/de/uni_stuttgart/informatik/ipvs/schaefpk/VideoRetrieval/feature_extraction/WriteableFeatures.java
/home/patrik/workspace/VideoRetrieval7/src/main/java/de/uni_stuttgart/informatik/ipvs/schaefpk/VideoRetrieval/classes/StandardFeatureList.java
/home/patrik/workspace/VideoRetrieval7/src/main/java/de/uni_stuttgart/informatik/ipvs/schaefpk/VideoRetrieval/giraph/GatherResultPiece.java
/home/patrik/workspace/VideoRetrieval7/src/main/java/de/uni_stuttgart/informatik/ipvs/schaefpk/VideoRetrieval/giraph/InsertInitPiece.java
/home/patrik/workspace/VideoRetrieval7/src/main/java/de/uni_stuttgart/informatik/ipvs/schaefpk/VideoRetrieval/feature_extraction/KeyframeProvider.java
/home/patrik/workspace/VideoRetrieval7/src/main/java/de/uni_stuttgart/informatik/ipvs/schaefpk/VideoRetrieval/classes/BinaryEdgeHistogramFeature.java
